555295 998087 525
968896 674563 525
108474 346190 443
891196 154602 525
58141 917788 525
945488 933928 507
567294 768467 509
391030 711099 509
281192 189550 443
294441 24538 443
140532 47796 354
615926 399677 470
520107 65538 470
591273 526413 452
612368 294316 470
70764 795758 509
595215 6663 470
726973 623075 509
336715 81013 443
188478 865286 525
751919 118805 509
357809 433652 449
607676 915043 525
571049 480500 470
143248 776491 509
412674 43537 449
966411 713890 525
230750 201177 443
434695 541237 470
653964 667166 442
351421 632742 509
549946 661133 509
846827 177773 525
283766 756802 509
264020 669230 509
343540 283827 389
213590 913940 525
533940 701979 509
826677 919484 525
829450 291519 509
942137 166523 525
764915 165958 509
75242 549797 470
660034 745472 504
701877 943735 525
700230 935753 525
965331 501196 525
950604 412004 525
430177 767015 509
973079 484103 525
851053 466647 525
899057 112050 525
590504 870645 525
810135 52176 509
899973 451878 525
85462 231076 443
544518 199074 470
665058 714533 504
339370 90945 443
409951 754741 509
191016 279771 443
411532 198670 449
483689 533518 470
644116 577080 509
878338 577140 525
902539 235150 525
413113 401803 449
444556 152248 449
895089 365779 525
886302 811482 525
592533 616252 447
722671 729087 380
258625 892350 525
424542 901191 525
3747 761754 509
651571 337346 509
242276 618260 470
835937 366533 509
103568 985450 525
234287 938586 525
684234 629814 442
782987 205676 509
305002 625152 470
898881 7439 525
908331 254501 525
233839 638929 509
423708 306441 449
552843 668306 509
996725 887966 507
171287 234172 443
275717 164401 443
760989 821527 468
243931 997798 525
172175 171012 334
327414 878915 525
839924 660468 525
976079 953036 458
31366 479344 449
828449 786428 468
546505 574881 452
724033 212917 509
310667 431814 449
486983 402470 449
984084 871828 507
390308 738708 509
728155 247712 509
286321 875157 525
920517 562732 525
759118 502941 509
124608 432492 449
681345 353977 509
619747 841399 525
403561 477372 449
681408 600964 509
136567 122680 344
610919 819735 509
500783 178361 449
216262 666332 509
278176 747609 509
661273 772052 504
805386 475231 509
563126 16924 470
148168 316380 443
387124 881338 525
972537 340198 525
616149 123068 470
133503 230528 386
483598 975976 525
888091 346256 525
595027 822422 509
979420 305046 525
482655 548050 470
691201 376356 509
875747 117489 525
794765 409996 509
409305 996887 525
289361 241258 407
280491 299950 389
502927 833860 509
453562 870277 525
638101 617110 509
413852 265440 449
729657 704796 411
498970 281333 449
44768 114019 354
211995 364015 443
138761 251952 443
832698 322378 509
990883 606636 525
185167 480937 449
742020 611651 509
479702 757668 509
354177 538725 470
233274 375361 441
329637 697384 509
221142 368350 443
782476 51679 509
385349 668188 509
845667 992629 507
452686 279070 449
42797 688362 509
987921 704108 525
884235 285676 525
375723 775829 509
357027 623876 470
39951 501738 449
595093 143802 470
415824 313865 449
646723 670461 442
756089 63419 509
56600 267438 443
168911 393679 443
145200 977693 525
366743 939427 525
709357 999845 525
986663 796520 525
818053 789898 468
713750 304152 509
896813 378723 525
615906 881448 525
120217 658646 509
805866 448689 509
515132 832632 509
349166 912751 525
216494 607890 470
765711 139341 509
879160 513682 525
847659 901780 445
298082 985104 525
643694 304385 509
823061 757139 468
916790 889691 476
899922 641796 525
257790 321954 407
215643 349049 443
368718 436817 449
480946 317060 449
788514 72293 509
499004 82215 449
950710 370561 525
486903 394747 449
513446 701470 509
881423 472502 525
863558 665698 525
945529 718299 525
318871 810772 509
494855 128024 449
129632 715102 509
976172 864232 507
296529 996965 525
183996 50499 383
505955 298801 449
154336 241000 443
694476 852671 525
661812 944667 525
511906 651352 509
101516 277145 443
785150 843840 525
430844 513963 470
261685 321832 407
935696 787435 525
534694 212962 470
915951 458283 525
524813 699280 509
909491 793332 525
121054 785185 509
406606 448328 449
326512 198517 443
164894 142927 383
73505 135209 354
391280 168284 443
930475 322370 525
659421 761313 504
887778 687854 525
132680 377715 443
547823 333103 470
962968 25762 525
658170 393992 509
914586 841459 476
57238 833279 509
148748 951717 525
117299 967113 525
861333 962271 507
864267 604534 525
549771 933726 525
99240 673362 509
570796 844 470
818336 672997 504
85058 495091 449
478266 668936 509
294529 422815 449
778512 467383 509
542192 220902 470
801384 514507 509
103138 639436 509
103350 749224 509
289981 812569 509
599555 697228 509
780229 940567 525
778087 334606 509
728227 977828 525
658256 745297 504
511539 738472 509
480908 698155 509
986169 231566 525
983959 175790 525
646720 925393 525
985284 473416 525
467932 432090 444
126288 487125 449
411272 220739 449
348375 233489 441
641249 517710 509
425388 422512 418
826296 422444 509
498008 741935 509
172546 705587 509
115702 925138 525
623500 868804 525
397235 548797 470
164036 891431 525
789633 174153 509
692978 437910 509
364287 12466 443
348122 688009 509
394876 363067 436
438041 911562 525
370270 483686 449
291413 858992 525
341610 744825 509
529957 700932 509
687223 638043 442
150864 242800 443
358477 352603 379
783300 600305 509
276593 470940 449
447932 508510 444
953091 814279 525
616544 273795 470
546815 443755 470
16243 255806 443
436726 422633 418
678131 345749 509
863459 594274 525
411118 142907 449
701552 580450 509
138520 547747 470
122108 25394 354
964668 505273 525
581742 435538 470
350249 602692 470
177164 227196 386
790407 227548 509
779802 807376 468
38707 883976 525
112369 498134 449
735353 535296 509
978608 21241 525
119168 997923 525
146795 806148 509
749505 89178 509
940025 46354 525
100149 319547 443
543665 598459 452
778565 696582 504
108762 954706 525
317904 829382 509
819188 373288 509
258982 448017 449
213821 135950 383
59418 168082 383
376587 233068 441
666102 424648 509
81095 790484 509
325373 730808 509
918628 664485 525
672309 652166 442
966101 162013 525
986960 864368 507
407290 309733 441
858047 949506 507
866002 309580 525
282609 797464 509
774672 769936 393
30902 164053 383
911048 892093 476
441754 492467 444
641077 993590 525
337882 394568 441
283886 45745 443
607355 151757 470
130161 710186 509
509872 799376 509
566397 282131 470
139664 529284 470
388897 320302 441
741861 12643 509
874912 876152 432
944838 281529 525
46571 425479 449
992337 661750 525
737454 743054 424
342968 81600 443
782655 846889 525
602762 937101 525
360612 822348 509
486039 859832 525
441606 823817 509
497215 770948 509
29784 342784 443
595980 405944 470
807088 736328 468
7164 521506 470
101752 924774 525
384030 417803 449
748402 290094 509
655903 605807 509
581871 978994 525
603731 850446 525
195931 415318 449
786617 135300 509
79606 438430 449
500193 933130 525
300954 256115 407
699546 118840 509
170868 260804 443
83651 417979 449
651542 702055 442
443378 42949 449
550834 985945 525
777693 751107 468
366551 900475 525
505517 62123 449
598008 65729 470
339765 741988 509
329174 34698 443
219049 316636 443
432823 490325 444
8095 353108 443
16758 410557 449
181651 300591 443
155444 630276 509
884837 813772 525
355268 79554 443
822040 416831 509
499308 777201 509
612299 211334 470
47104 94352 351
832042 151997 509
230816 542816 470
915274 663881 525
149840 93010 375
192883 920525 525
781223 972506 525
377959 824161 509
412068 383251 449
310771 167410 443
890249 754453 525
556414 344505 470
428547 639646 509
488402 919563 525
999738 238536 525
834938 574886 509
679768 397054 509
764060 267863 509
646291 139287 509
341041 755919 509
529858 149516 470
272271 642724 509
610056 492931 470
185255 458365 449
624597 571528 447
965258 18504 525
481367 991305 525
332240 311169 384
167842 403252 443
585293 186083 470
910963 781126 525
299367 869693 525
51212 406486 443
476838 554863 470
153822 570929 470
332417 217675 443
967796 545205 525
27285 960548 525
889858 206424 525
317248 660981 509
121809 581091 470
684658 398960 509
6951 630326 509
652415 773329 504
476454 120265 449
537191 544048 408
492076 658888 509
167197 765685 509
310429 298008 371
864484 517859 525
53485 632848 509
540262 130199 470
742546 951152 525
251785 129094 443
25563 700442 509
321947 977817 525
231674 719341 509
213913 708732 509
299570 563662 470
538341 597774 452
951438 216860 525
966044 466407 525
681376 648275 442
217552 677206 509
930027 779801 525
321661 964300 525
141780 312404 443
990239 958106 458
641373 734129 504
387084 988395 525
640897 932483 525
164586 34901 383
679848 483721 509
760427 277164 509
278136 983861 525
761407 596601 509
366058 862756 525
199582 64540 383
267083 702391 509
230898 727150 509
936759 90892 525
435939 414964 418
982061 367011 525
316162 350514 441
546123 532411 408
573094 589810 434
700813 363419 509
214535 505494 449
53219 103014 351
951559 221051 525
394728 961372 525
991380 243079 525
805154 739430 468
145336 5557 375
837475 61339 509
130376 81160 354
301059 607282 470
616059 301583 470
64768 116651 354
294037 970548 525
724646 197408 509
496948 898226 525
956580 885869 507
955733 594957 525
179806 384695 443
586095 602036 403
220699 687876 509
784144 898830 525
758598 933830 525
584823 208539 470
222258 714288 509
575772 160732 470
975743 394523 525
733024 198058 509
888850 54216 525
953436 25995 525
462217 364193 449
533875 33002 470
305837 269982 407
474134 50009 449
918801 519163 525
61581 71781 330
370491 718934 509
672929 880758 525
757062 279551 509
563679 142508 470
641213 868309 525
181120 444277 449
110203 167624 383
747051 822410 468
60099 926803 525
846372 727105 525
931502 265836 525
110423 990597 525
282417 648304 509
180038 421769 449
416812 849410 525
916676 202415 525
555011 548057 421
870063 769853 525
36224 231523 443
706188 367411 509
229719 267356 443
54686 559321 470
657737 733892 504
101290 784292 509
972839 182683 525
485929 495555 426
504732 632089 509
606062 237946 470
807611 813634 406
542312 586899 452
22610 564851 470
117789 940794 525
365634 974590 525
188066 649921 509
214549 581063 470
978441 856968 507
519876 464441 470
407169 425607 449
842420 252339 525
511415 311013 449
256262 116431 443
305007 742291 509
953315 911502 507
360409 325237 441
160273 557519 470
685449 38223 509
737490 958632 525
893138 45221 525
567903 588348 434
358437 786939 509
499796 543003 470
268368 69027 443
108061 120174 349
139222 682095 509
440327 915091 525
260206 47670 443
405140 596808 470
701988 872047 525
901853 540498 525
469070 864441 525
101919 714126 509
324979 81781 443
262658 912467 525
652072 391024 509
357870 550739 470
4380 273699 443
390114 267454 441
307145 764042 509
3937 860295 525
327383 554710 470
265953 248232 407
503853 609975 470
5466 97705 351
852580 478146 525
178077 572118 470
765333 367445 509
297199 747876 509
344989 833582 509
253754 363888 441
50881 52471 309
876715 298735 525
744895 905162 525
863486 239675 525
308512 942049 525
292304 616627 470
937658 100596 525
320746 296686 384
994238 99835 525
790343 778209 437
464584 136681 449
647831 674132 442
599840 676051 509
212783 904928 525
822249 405586 509
991030 147496 525
57320 285044 443
575354 962816 525
996558 506790 525
953215 153126 525
922480 727646 525
875169 158220 525
191765 568796 470
900766 454080 525
73279 559942 470
334749 625743 470
878084 912083 476
94322 492618 449
109915 101273 354
226348 695155 509
961938 63376 525
379671 32771 443
533257 276476 470
17360 881733 525
926075 483423 525
787828 558860 509
760837 178190 509
289926 579942 470
836909 510861 509
436938 731790 509
240096 974548 525
744970 929101 525
320139 505380 449
483575 237937 449
353122 305092 441
228754 601177 470
723974 726816 362
291205 972935 525
493724 422484 444
263937 277571 407
161792 342236 443
800589 41673 509
445754 847793 525
193225 945501 525
485891 71191 449
685191 733527 504
478045 974617 525
127414 541296 470
601795 961431 525
143744 285510 443
730814 712051 411
349937 88768 443
210884 636496 509
319508 644569 509
624119 50344 470
610463 994121 525
308586 112240 443
376352 611490 470
244421 470554 449
923536 685 525
506884 606437 470
372974 519169 470
961525 820732 525
690429 919378 525
595711 259798 470
906741 55975 525
8217 440979 449
265468 195689 443
343184 121068 443
975998 738396 525
772981 263024 509
854591 631376 525
106249 337637 443
220121 254491 443
124028 889447 525
332917 219910 443
70658 963352 525
113357 349915 443
156486 999651 525
422102 193282 449
665361 783505 504
163575 714352 509
327888 210813 443
330003 493364 449
332200 97667 443
166585 714138 509
904778 854852 445
109108 684280 509
545482 103258 470
845542 391616 525
276260 781702 509
39711 192093 383
378367 737997 509
565650 963437 525
646892 46407 509
256133 239381 368
475963 39566 449
124873 695917 509
28522 12430 308
467164 345373 449
701581 250936 509
567875 859856 525
431560 662399 509
325569 655906 509
631140 202665 509
435748 31405 449
99802 966153 525
906230 49455 525
525421 937470 525
51429 663849 509
523132 583353 452
358212 482299 449
130702 992014 525
4270 54864 340
112169 309008 443
302225 221065 443
758649 641132 504
57989 605533 470
994155 176029 525
337024 612888 470
741277 166369 509
2233 89495 351
79555 726620 509
142718 898583 525
141233 160742 383
601618 297700 470
256831 326124 407
546334 153311 470
998236 769236 525
961659 620754 525
420213 52790 449
262495 537014 470
573614 853402 525
280359 490671 449
193736 627082 509
288543 38215 443
824316 113378 509
873527 219310 525
309943 507037 449
536601 721624 509
139777 51962 354
164023 52009 383
202715 479499 449
731378 665733 504
698922 64747 509
514198 638839 509
195707 369608 443
786050 362550 509
49101 632957 509
648505 667639 442
407214 100816 443
473812 617620 470
117686 892629 525
199690 653556 509
896635 580121 525
188739 669433 509
229879 401509 443
43795 220244 386
61222 130577 354
423007 815319 509
25347 788985 509
665178 703472 442
556160 437437 470
177780 805424 509
406750 983265 525
174703 54298 383
427452 857622 525
468345 329298 449
222998 789048 509
468797 366473 449
945139 278081 525
88797 776236 509
467067 36772 449
703810 896369 525
603189 243797 470
25436 620345 470
548655 13489 470
257041 63221 443
37685 897800 525
147936 563629 470
680702 141524 509
700718 182319 509
950904 802487 525
472045 424792 444
70627 89183 351
324519 151644 443
739284 490082 509
710293 408076 509
146380 323754 443
306724 758974 509
885967 92476 525
120812 269391 443
310072 25323 443
455189 162095 449
704106 371487 509
719323 466047 509
756230 334255 509
878316 974183 507
966523 458890 525
470570 317314 449
866665 297039 525
253347 753984 509
704555 839062 525
696270 72553 509
132083 373720 443
284819 185095 443
331900 607153 470
897602 832331 525
617621 123274 470
817279 359993 509
551443 660730 509
777964 839497 525
397157 54929 443
677740 659021 442
436526 853516 525
523347 688443 509
535334 809528 509
366884 815021 509
398511 89264 443
895495 22132 525
695774 868270 525
523308 386169 470
586577 892856 525
199837 570928 470
282059 237646 407
984933 331649 525
858691 953410 507
394435 47692 443
309082 839350 525
645484 320048 509
269704 10961 443
928465 758889 525
845049 205775 525
296298 308636 371
55933 572683 470
920050 654665 525
329708 234193 407
719915 730393 411
617965 157916 470
69174 318865 443
367697 222765 443
353030 441439 449
220109 35311 386
779100 469815 509
544756 934962 525
261795 734671 509
693247 923706 525
672008 242890 509
697840 201413 509
44735 750780 509
150295 372295 443
41449 514204 470
474632 506544 426
846146 777188 525
400283 103941 443
126231 366021 443
517477 211644 470
515240 4082 470
690474 466021 509
484527 779773 509
577154 876116 525
236662 717679 509
719890 798181 468
504463 629437 509
138312 104275 354
209268 708194 509
528011 32579 470
575302 768734 509
87906 354302 443
530254 409832 470
589586 364378 470
100685 571576 470
982714 332062 525
280236 400188 441
10144 705679 509
884169 222360 525
702979 782139 504
607679 758854 509
208384 519102 470
431276 576433 470
949314 965518 414
810048 590751 509
878838 863587 432
942412 330332 525
548566 162516 470
393258 554362 470
520101 159781 470
325152 410832 449
483726 314036 449
59434 768888 509
570135 935442 525
552937 844582 525
729107 54402 509
176763 625724 470
889467 35077 525
983774 689736 525
750756 255093 509
936428 951381 507
214188 598004 470
721476 890736 525
172588 850044 525
27559 288146 443
715801 672033 504
880832 47590 525
719129 280193 509
594196 630608 509
623622 659490 509
651106 842499 525
638904 445964 509
304546 660456 509
26891 687128 509
950914 981911 458
341352 371224 441
29118 43522 324
730384 556250 509
209426 129546 383
608418 197827 470
656950 794145 504
155261 202251 383
93866 320454 443
193030 521319 470
656559 433297 509
567428 810062 509
127649 113556 349
281601 144999 443
199454 667017 509
943962 422130 525
604264 350342 470
315268 248210 407
477040 75765 449
541143 457397 470
640547 235013 509
524904 658536 509
200921 217661 386
989730 257675 525
642361 536943 509
772346 963244 525
390402 514931 470
812592 747057 468
68311 391766 443
735024 782772 468
765840 88885 509
180414 79120 383
663183 56047 509
826460 237501 509
452238 707004 509
403136 845356 525
225581 755362 509
186441 528710 470
378482 713357 509
309557 447234 449
759234 484340 509
490564 323755 449
567456 778070 509
205504 555027 470
850678 26711 525
162326 937678 525
746180 622066 509
313903 544907 470
15461 859030 525
127967 339553 443
756601 181720 509
224473 850933 525
658774 183053 509
646519 29441 509
481431 597483 470
769143 35360 509
544750 989981 525
354564 62430 443
639639 513290 509
565944 738975 509
496395 676038 509
903371 809732 525
986161 573260 525
946139 729872 525
663302 774108 504
195794 584692 470
591703 376651 470
19335 443080 449
224637 617492 470
542349 306705 470
